{
    "key": "group_5fd7a2a6774ea",
    "title": "Ask The Unsealed Fields",
    "fields": [
        {
            "key": "field_5fd7a2b3a321d",
            "label": "User",
            "name": "from_user",
            "type": "user",
            "instructions": "This is the user that will appear in the From line",
            "required": 0,
            "conditional_logic": 0,
            "wrapper": {
                "width": "",
                "class": "",
                "id": ""
            },
            "role": "",
            "allow_null": 0,
            "multiple": 0,
            "return_format": "array"
        },
        {
            "key": "field_5fd7a2d8a321e",
            "label": "From override",
            "name": "from_override",
            "type": "text",
            "instructions": "Use this to override the 'from' text. Still select a user if possible.",
            "required": 0,
            "conditional_logic": 0,
            "wrapper": {
                "width": "",
                "class": "",
                "id": ""
            },
            "default_value": "",
            "placeholder": "",
            "prepend": "",
            "append": "",
            "maxlength": ""
        }
    ],
    "location": [
        [
            {
                "param": "post_type",
                "operator": "==",
                "value": "ask-the-unsealed"
            }
        ]
    ],
    "menu_order": 0,
    "position": "normal",
    "style": "seamless",
    "label_placement": "top",
    "instruction_placement": "label",
    "hide_on_screen": "",
    "active": true,
    "description": "",
    "modified": 1607970385
}