{
    "key": "group_5d0a3dab0794d",
    "title": "Letters Page Summary",
    "fields": [
        {
            "key": "field_5d0a3dafd796c",
            "label": "Letters Page Summary",
            "name": "Letters Page Summary",
            "type": "textarea",
            "instructions": "Enter your excerpt of about 2-3 sentences here.",
            "required": 0,
            "conditional_logic": 0,
            "wrapper": {
                "width": "",
                "class": "",
                "id": ""
            },
            "default_value": "",
            "placeholder": "",
            "maxlength": "",
            "rows": "",
            "new_lines": ""
        }
    ],
    "location": [
        [
            {
                "param": "post_type",
                "operator": "==",
                "value": "post"
            }
        ]
    ],
    "menu_order": -1,
    "position": "normal",
    "style": "seamless",
    "label_placement": "left",
    "instruction_placement": "label",
    "hide_on_screen": [
        "discussion",
        "comments",
        "revisions",
        "slug",
        "send-trackbacks"
    ],
    "active": true,
    "description": "",
    "modified": 1607354996
}